TannerG_Project_Presentation
…
hy_list <- list(allantoic, cal09BV, cal09HA, cal09NA, cal09WV, emptyplate, mich15HA)
names(hy_list) = c("allantoic", "cal09HA", "cal09NA", "cal09BV", "cal09WV", "emptyplate", "mich15HA")
names(hy_list)

## [1] "allantoic"  "cal09HA"    "cal09NA"    "cal09BV"    "cal09WV"   
## [6] "emptyplate" "mich15HA"

Tidy/Munge Data + Use Function to Rename List Contents

hy_list <- map(hy_list, gather, key = "position", value = "Value", 2:13)
hy_list <- map(hy_list, select, -2)
hy_list <- map(hy_list, unite, position, 1:2 , sep = "")
hy_list[['allantoic']]

## # A tibble: 96 x 2
##    position Value
##    <chr>    <dbl>
##  1 A1       0.071
##  2 B1       0.171
##  3 C1       0.08 
##  4 D1       0.265
##  5 E1       0.163
##  6 F1       0.258
##  7 G1       0.068
##  8 H1       0.133
##  9 A2       0.079
## 10 B2       0.165
## #  with 86 more rows

for(n in c("allantoic", "cal09HA", "cal09NA", "cal09BV", "cal09WV", "emptyplate", "mich15HA")){
  names(hy_list[[n]]) <- str_replace(names(hy_list[[n]]), 'Value', n)}
hy_list[['allantoic']]

## # A tibble: 96 x 2
##    position allantoic
##    <chr>        <dbl>
##  1 A1           0.071
##  2 B1           0.171
##  3 C1           0.08 
##  4 D1           0.265
##  5 E1           0.163
##  6 F1           0.258
##  7 G1           0.068
##  8 H1           0.133
##  9 A2           0.079
## 10 B2           0.165
## #  with 86 more rows

Table1/2 = Use Reduce to Join All Files Together + Tidying

joined_hy_list <- reduce(hy_list, left_join, by = "position")
joined_hy_list

## # A tibble: 96 x 8
##    position allantoic cal09HA cal09NA cal09BV cal09WV emptyplate mich15HA
##    <chr>        <dbl>   <dbl>   <dbl>   <dbl>   <dbl>      <dbl>    <dbl>
##  1 A1           0.071   0.068   0.104   0.061   0.111      0.111    0.066
##  2 B1           0.171   0.177   1.38    0.191   1.12       0.271    0.182
##  3 C1           0.08    0.067   0.078   0.086   0.096      0.068    0.069
##  4 D1           0.265   0.381   0.363   0.345   0.319      0.294    0.275
##  5 E1           0.163   0.582   0.17    0.187   0.666      0.146    0.186
##  6 F1           0.258   0.202   0.267   0.229   0.22       0.199    0.247
##  7 G1           0.068   0.077   0.071   0.067   0.062      0.066    0.062
##  8 H1           0.133   0.123   0.203   0.141   0.133      0.13     0.156
##  9 A2           0.079   0.066   0.135   0.078   0.074      0.068    0.064
## 10 B2           0.165   0.447   1.25    0.174   1.24       0.186    0.176
## #  with 86 more rows

grouped_list <- gather(joined_hy_list, key = "antigen", value =  "Value", -1)
grouped_list

## # A tibble: 672 x 3
##    position antigen   Value
##    <chr>    <chr>     <dbl>
##  1 A1       allantoic 0.071
##  2 B1       allantoic 0.171
##  3 C1       allantoic 0.08 
##  4 D1       allantoic 0.265
##  5 E1       allantoic 0.163
##  6 F1       allantoic 0.258
##  7 G1       allantoic 0.068
##  8 H1       allantoic 0.133
##  9 A2       allantoic 0.079
## 10 B2       allantoic 0.165
## #  with 662 more rows
…
