Visualizations in bioinformatics contexts
…
.pull-left[

```r
axisdf <- plt_dat %>% 
    group_by(CHR) %>% 
    summarize(center = (max(BPcumul)+min(BPcumul))/2)
axisdf
```

]
.pull-right[

```
# A tibble: 22 x 2
     CHR center
   <int>  <dbl>
 1     1   750.
 2     2  2096 
 3     3  3212.
 4     4  4204 
 5     5  5115 
 6     6  5966 
 7     7  6770.
 8     8  7538.
 9     9  8273 
10    10  8982.
# … with 12 more rows
```
…
