Statistical tests
…
```r
brca %>%
  select(ER.Status, starts_with('NP')) %>%
* pivot_longer(names_to = 'protein',
*              values_to = 'expression',
*              cols = c(-ER.Status))
```
]
 
.panel2-through-auto[

```
# A tibble: 1,080 × 3
   ER.Status protein   expression
   <chr>     <chr>          <dbl>
 1 Negative  NP_958782         NA
 2 Negative  NP_958785         NA
 3 Negative  NP_958786         NA
 4 Negative  NP_000436         NA
 5 Negative  NP_958781         NA
 6 Negative  NP_958780         NA
 7 Negative  NP_958783         NA
 8 Negative  NP_958784         NA
 9 Negative  NP_112598         NA
10 Negative  NP_001611         NA
# … with 1,070 more rows
```
…
```r
brca %>%
  select(ER.Status, starts_with('NP')) %>%
  pivot_longer(names_to = 'protein',
               values_to = 'expression',
               cols = c(-ER.Status)) %>%
* split(.$protein)
```
]
 
.panel2-through-auto[

```
$NP_000436
# A tibble: 108 × 3
   ER.Status protein   expression
   <chr>     <chr>          <dbl>
 1 Negative  NP_000436     NA    
 2 Negative  NP_000436      0.687
 3 Negative  NP_000436     NA    
 4 Negative  NP_000436      0.205
 5 Negative  NP_000436     NA    
 6 Negative  NP_000436     -1.13 
 7 Negative  NP_000436      0.535
 8 Negative  NP_000436     NA    
 9 Negative  NP_000436      0.837
10 Negative  NP_000436      0.656
# … with 98 more rows

$NP_001611
# A tibble: 108 × 3
   ER.Status protein   expression
   <chr>     <chr>          <dbl>
 1 Negative  NP_001611     NA    
 2 Negative  NP_001611     -0.984
 3 Negative  NP_001611     NA    
 4 Negative  NP_001611     -0.517
 5 Negative  NP_001611     NA    
 6 Negative  NP_001611     -2.58 
 7 Negative  NP_001611      0.267
 8 Negative  NP_001611     NA    
 9 Negative  NP_001611      2.84 
10 Negative  NP_001611      1.31 
# … with 98 more rows

$NP_112598
# A tibble: 108 × 3
   ER.Status protein   expression
   <chr>     <chr>          <dbl>
 1 Negative  NP_112598     NA    
 2 Negative  NP_112598     -2.65 
 3 Negative  NP_112598     NA    
 4 Negative  NP_112598     -1.04 
 5 Negative  NP_112598     NA    
 6 Negative  NP_112598      2.24 
 7 Negative  NP_112598     -0.148
 8 Negative  NP_112598     NA    
 9 Negative  NP_112598     -0.967
10 Negative  NP_112598     -1.97 
# … with 98 more rows

$NP_958780
# A tibble: 108 × 3
   ER.Status protein   expression
   <chr>     <chr>          <dbl>
 1 Negative  NP_958780     NA    
 2 Negative  NP_958780      0.698
 3 Negative  NP_958780     NA    
 4 Negative  NP_958780      0.215
 5 Negative  NP_958780     NA    
 6 Negative  NP_958780     -1.12 
 7 Negative  NP_958780      0.542
 8 Negative  NP_958780     NA    
 9 Negative  NP_958780      0.857
10 Negative  NP_958780      0.658
# … with 98 more rows

$NP_958781
# A tibble: 108 × 3
   ER.Status protein   expression
   <chr>     <chr>          <dbl>
 1 Negative  NP_958781     NA    
 2 Negative  NP_958781      0.687
 3 Negative  NP_958781     NA    
 4 Negative  NP_958781      0.215
 5 Negative  NP_958781     NA    
 6 Negative  NP_958781     -1.13 
 7 Negative  NP_958781      0.542
 8 Negative  NP_958781     NA    
 9 Negative  NP_958781      0.865
10 Negative  NP_958781      0.651
# … with 98 more rows

$NP_958782
# A tibble: 108 × 3
   ER.Status protein   expression
   <chr>     <chr>          <dbl>
 1 Negative  NP_958782     NA    
 2 Negative  NP_958782      0.683
 3 Negative  NP_958782     NA    
 4 Negative  NP_958782      0.195
 5 Negative  NP_958782     NA    
 6 Negative  NP_958782     -1.12 
 7 Negative  NP_958782      0.539
 8 Negative  NP_958782     NA    
 9 Negative  NP_958782      0.831
10 Negative  NP_958782      0.656
# … with 98 more rows

$NP_958783
# A tibble: 108 × 3
   ER.Status protein   expression
   <chr>     <chr>          <dbl>
 1 Negative  NP_958783     NA    
 2 Negative  NP_958783      0.698
 3 Negative  NP_958783     NA    
 4 Negative  NP_958783      0.215
 5 Negative  NP_958783     NA    
 6 Negative  NP_958783     -1.12 
 7 Negative  NP_958783      0.542
 8 Negative  NP_958783     NA    
 9 Negative  NP_958783      0.851
10 Negative  NP_958783      0.656
# … with 98 more rows

$NP_958784
# A tibble: 108 × 3
   ER.Status protein   expression
   <chr>     <chr>          <dbl>
 1 Negative  NP_958784     NA    
 2 Negative  NP_958784      0.698
 3 Negative  NP_958784     NA    
 4 Negative  NP_958784      0.215
 5 Negative  NP_958784     NA    
 6 Negative  NP_958784     -1.12 
 7 Negative  NP_958784      0.542
 8 Negative  NP_958784     NA    
 9 Negative  NP_958784      0.851
10 Negative  NP_958784      0.656
# … with 98 more rows

$NP_958785
# A tibble: 108 × 3
   ER.Status protein   expression
   <chr>     <chr>          <dbl>
 1 Negative  NP_958785     NA    
 2 Negative  NP_958785      0.694
 3 Negative  NP_958785     NA    
 4 Negative  NP_958785      0.215
 5 Negative  NP_958785     NA    
 6 Negative  NP_958785     -1.12 
 7 Negative  NP_958785      0.542
 8 Negative  NP_958785     NA    
 9 Negative  NP_958785      0.857
10 Negative  NP_958785      0.658
# … with 98 more rows

$NP_958786
# A tibble: 108 × 3
   ER.Status protein   expression
   <chr>     <chr>          <dbl>
 1 Negative  NP_958786     NA    
 2 Negative  NP_958786      0.698
 3 Negative  NP_958786     NA    
 4 Negative  NP_958786      0.215
 5 Negative  NP_958786     NA    
 6 Negative  NP_958786     -1.12 
 7 Negative  NP_958786      0.542
 8 Negative  NP_958786     NA    
 9 Negative  NP_958786      0.857
10 Negative  NP_958786      0.656
# … with 98 more rows
```
…
