Pipelines and workflows
…
The **dplyr** package allows you to do rowwise operations much more easily than before within a pipe using
the `rowwise` function. For example

.pull-left[

```r
mpg %>%
  select(manufacturer, year, cty, hwy) %>% 
  rowwise() %>% 
  mutate(avg_mpg = mean(c(hwy, cty)))
```

```
# A tibble: 234 × 5
# Rowwise: 
   manufacturer  year   cty   hwy avg_mpg
   <chr>        <int> <int> <int>   <dbl>
 1 audi          1999    18    29    23.5
 2 audi          1999    21    29    25  
 3 audi          2008    20    31    25.5
 4 audi          2008    21    30    25.5
 5 audi          1999    16    26    21  
 6 audi          1999    18    26    22  
 7 audi          2008    18    27    22.5
 8 audi          1999    18    26    22  
 9 audi          1999    16    25    20.5
10 audi          2008    20    28    24  
# … with 224 more rows
```
…
