Practical R: Data Ingestion and Munging
…
## A friendly way of selecting columns

The tidyverse gives us a nice way of selecting, or not selecting columns

Instead of all the writing, we could simply say

```r
pew <- read_csv('data/pew.csv')
tidyr::gather(pew, key = income, value = count, -religion)
```

--

```
#>  # A tibble: 180 x 3
#>     religion                income count
#>     <chr>                   <chr>  <dbl>
#>   1 Agnostic                <$10k     27
#>   2 Atheist                 <$10k     12
#>   3 Buddhist                <$10k     27
#>   4 Catholic                <$10k    418
#>   5 Don’t know/refused      <$10k     15
#>   6 Evangelical Prot        <$10k    575
#>   7 Hindu                   <$10k      1
#>   8 Historically Black Prot <$10k    228
#>   9 Jehovah's Witness       <$10k     20
#>  10 Jewish                  <$10k     19
#>  # … with 170 more rows
```
…
---

## mutate

We'll change the city and highway mileage to km/l from mpg. This will involve multiplying it by 1.6 and dividing by 3.8

.pull-left[

```r
mutate(mpg1, cty = cty * 1.6 / 3.8, hwy = hwy * 1.6/3.8)
```

```
#>  # A tibble: 234 x 2
#>       cty   hwy
#>     <dbl> <dbl>
#>   1  7.58  12.2
#>   2  8.84  12.2
#>   3  8.42  13.1
#>   4  8.84  12.6
#>   5  6.74  10.9
#>   6  7.58  10.9
#>   7  7.58  11.4
#>   8  7.58  10.9
#>   9  6.74  10.5
#>  10  8.42  11.8
#>  # … with 224 more rows
```
This is in-place replacement
]
.pull-right[

```r
mutate(mpg1, cty1 = cty * 1.6/3.8, hwy1 = hwy * 1.6/3.8)
```

```
#>  # A tibble: 234 x 4
#>       cty   hwy  cty1  hwy1
#>     <int> <int> <dbl> <dbl>
#>   1    18    29  7.58  12.2
#>   2    21    29  8.84  12.2
#>   3    20    31  8.42  13.1
#>   4    21    30  8.84  12.6
#>   5    16    26  6.74  10.9
#>   6    18    26  7.58  10.9
#>   7    18    27  7.58  11.4
#>   8    18    26  7.58  10.9
#>   9    16    25  6.74  10.5
#>  10    20    28  8.42  11.8
#>  # … with 224 more rows
```
This creates new variables
]

---

## filter

`filter` extracts rows based on criteria

```r
filter(mpg, cyl == 4)
```

```
#>  # A tibble: 81 x 11
#>     manufacturer model    displ  year   cyl trans   drv     cty   hwy fl    class
#>     <chr>        <chr>    <dbl> <int> <int> <chr>   <chr> <int> <int> <chr> <chr>
#>   1 audi         a4         1.8  1999     4 auto(l… f        18    29 p     comp…
#>   2 audi         a4         1.8  1999     4 manual… f        21    29 p     comp…
#>   3 audi         a4         2    2008     4 manual… f        20    31 p     comp…
#>   4 audi         a4         2    2008     4 auto(a… f        21    30 p     comp…
#>   5 audi         a4 quat…   1.8  1999     4 manual… 4        18    26 p     comp…
#>   6 audi         a4 quat…   1.8  1999     4 auto(l… 4        16    25 p     comp…
#>   7 audi         a4 quat…   2    2008     4 manual… 4        20    28 p     comp…
#>   8 audi         a4 quat…   2    2008     4 auto(s… 4        19    27 p     comp…
#>   9 chevrolet    malibu     2.4  1999     4 auto(l… f        19    27 r     mids…
#>  10 chevrolet    malibu     2.4  2008     4 auto(l… f        22    30 r     mids…
#>  # … with 71 more rows
```
…
