Practical R: Data Munging in the tidyverse
…
## mutate

.pull-left[

```r
weather4 <- mutate(weather3, 
                   num_day = as.numeric(day))
as_tibble(weather4)
```
]
.pull-right[

```
#>  # A tibble: 341 x 8
#>     id       year month symbol day    tmax  tmin num_day
#>     <chr>   <int> <int> <chr>  <chr> <dbl> <dbl>   <dbl>
#>   1 MX17004  2010     1 d      1        NA    NA       1
#>   2 MX17004  2010     1 d      10       NA    NA      10
#>   3 MX17004  2010     1 d      11       NA    NA      11
#>   4 MX17004  2010     1 d      12       NA    NA      12
#>   5 MX17004  2010     1 d      13       NA    NA      13
#>   6 MX17004  2010     1 d      14       NA    NA      14
#>   7 MX17004  2010     1 d      15       NA    NA      15
#>   8 MX17004  2010     1 d      16       NA    NA      16
#>   9 MX17004  2010     1 d      17       NA    NA      17
#>  10 MX17004  2010     1 d      18       NA    NA      18
#>  # … with 331 more rows
```
…
## mutate

`mutate` can either transform a column in place or create a new column in a dataset

.pull-left[

```r
weather4 <- mutate(weather3, day = as.numeric(day))
as_tibble(weather4)
```
]
.pull-right[

```
#>  # A tibble: 341 x 7
#>     id       year month symbol   day  tmax  tmin
#>     <chr>   <int> <int> <chr>  <dbl> <dbl> <dbl>
#>   1 MX17004  2010     1 d          1    NA    NA
#>   2 MX17004  2010     1 d         10    NA    NA
#>   3 MX17004  2010     1 d         11    NA    NA
#>   4 MX17004  2010     1 d         12    NA    NA
#>   5 MX17004  2010     1 d         13    NA    NA
#>   6 MX17004  2010     1 d         14    NA    NA
#>   7 MX17004  2010     1 d         15    NA    NA
#>   8 MX17004  2010     1 d         16    NA    NA
#>   9 MX17004  2010     1 d         17    NA    NA
#>  10 MX17004  2010     1 d         18    NA    NA
#>  # … with 331 more rows
```
…
Let's use the `mpg` dataset from the `ggplot2` package

.pull-left[

```r
mpg1 <- filter(mpg, 
       (year==1999) & 
         (class %in% c('minivan','suv')))
select(mpg1, manufacturer, cty, hwy, class, year)
```
]
.pull-right[

```
#>  # A tibble: 35 x 5
#>     manufacturer   cty   hwy class    year
#>     <chr>        <int> <int> <chr>   <int>
#>   1 chevrolet       13    17 suv      1999
#>   2 chevrolet       11    15 suv      1999
#>   3 chevrolet       14    17 suv      1999
#>   4 dodge           18    24 minivan  1999
#>   5 dodge           17    24 minivan  1999
#>   6 dodge           16    22 minivan  1999
#>   7 dodge           16    22 minivan  1999
#>   8 dodge           15    22 minivan  1999
#>   9 dodge           15    21 minivan  1999
#>  10 dodge           13    17 suv      1999
#>  # … with 25 more rows
```
…
The split-apply-combine method is also useful in `mutate`.

In the weather dataset, let's impute the monthly averages for the missing values

```r
*weather4 %>% # weather4 still has missing values
  arrange(month,day) %>% 
  group_by(month) %>% 
  mutate(tmax = replace_na(tmax, mean(tmax, na.rm=T)),
         tmin = replace_na(tmin, mean(tmin, na.rm=T)))
```

```
#>  # A tibble: 341 x 7
#>  # Groups:   month [11]
#>     id       year month symbol   day  tmax  tmin
#>     <chr>   <int> <int> <chr>  <dbl> <dbl> <dbl>
#>   1 MX17004  2010     1 d          1  27.8  14.5
#>   2 MX17004  2010     1 d          2  27.8  14.5
#>   3 MX17004  2010     1 d          3  27.8  14.5
#>   4 MX17004  2010     1 d          4  27.8  14.5
#>   5 MX17004  2010     1 d          5  27.8  14.5
#>   6 MX17004  2010     1 d          6  27.8  14.5
#>   7 MX17004  2010     1 d          7  27.8  14.5
#>   8 MX17004  2010     1 d          8  27.8  14.5
#>   9 MX17004  2010     1 d          9  27.8  14.5
#>  10 MX17004  2010     1 d         10  27.8  14.5
#>  # … with 331 more rows
```
…
