Joins, and more plotting
…
.pull-left[

```r
clinical
```

```
#>  # A tibble: 105 x 30
#>     Complete.TCGA.ID Gender Age.at.Initial.… ER.Status PR.Status HER2.Final.Stat…
#>     <chr>            <chr>             <dbl> <chr>     <chr>     <chr>           
#>   1 TCGA-A2-A0T2     FEMALE               66 Negative  Negative  Negative        
#>   2 TCGA-A2-A0CM     FEMALE               40 Negative  Negative  Negative        
#>   3 TCGA-BH-A18V     FEMALE               48 Negative  Negative  Negative        
#>   4 TCGA-BH-A18Q     FEMALE               56 Negative  Negative  Negative        
#>   5 TCGA-BH-A0E0     FEMALE               38 Negative  Negative  Negative        
#>   6 TCGA-A7-A0CE     FEMALE               57 Negative  Negative  Negative        
#>   7 TCGA-D8-A142     FEMALE               74 Negative  Negative  Negative        
#>   8 TCGA-A2-A0D0     FEMALE               60 Negative  Negative  Negative        
#>   9 TCGA-AO-A0J6     FEMALE               61 Negative  Negative  Negative        
#>  10 TCGA-A2-A0YM     FEMALE               67 Negative  Negative  Negative        
#>  # … with 95 more rows, and 24 more variables: Tumor <chr>,
#>  #   Tumor..T1.Coded <chr>, Node <chr>, Node.Coded <chr>, Metastasis <chr>,
#>  #   Metastasis.Coded <chr>, AJCC.Stage <chr>, Converted.Stage <chr>,
#>  #   Survival.Data.Form <chr>, Vital.Status <chr>,
#>  #   Days.to.Date.of.Last.Contact <dbl>, Days.to.date.of.Death <dbl>,
#>  #   OS.event <dbl>, OS.Time <dbl>, PAM50.mRNA <chr>,
#>  #   SigClust.Unsupervised.mRNA <dbl>, SigClust.Intrinsic.mRNA <dbl>,
#>  #   miRNA.Clusters <dbl>, methylation.Clusters <dbl>, RPPA.Clusters <chr>,
#>  #   CN.Clusters <dbl>, Integrated.Clusters..with.PAM50. <dbl>,
#>  #   Integrated.Clusters..no.exp. <dbl>, Integrated.Clusters..unsup.exp. <dbl>
```
]
.pull-right[

```r
proteome
```

```
#>  # A tibble: 83 x 11
#>     TCGA_ID NP_958782 NP_958785 NP_958786 NP_000436 NP_958781 NP_958780 NP_958783
#>     <chr>       <dbl>     <dbl>     <dbl>     <dbl>     <dbl>     <dbl>     <dbl>
#>   1 TCGA-A…     1.10      1.11      1.11      1.11      1.12      1.11      1.11 
#>   2 TCGA-C…     2.61      2.65      2.65      2.65      2.65      2.65      2.65 
#>   3 TCGA-A…    -0.660    -0.649    -0.654    -0.632    -0.640    -0.654    -0.649
#>   4 TCGA-B…     0.195     0.215     0.215     0.205     0.215     0.215     0.215
#>   5 TCGA-C…    -0.494    -0.504    -0.501    -0.510    -0.504    -0.504    -0.501
#>   6 TCGA-C…     2.77      2.78      2.78      2.80      2.79      2.78      2.78 
#>   7 TCGA-E…     0.863     0.870     0.870     0.866     0.870     0.870     0.870
#>   8 TCGA-C…     1.41      1.41      1.41      1.41      1.41      1.41      1.41 
#>   9 TCGA-A…     1.19      1.19      1.19      1.19      1.20      1.19      1.19 
#>  10 TCGA-A…     1.10      1.10      1.10      1.10      1.09      1.10      1.10 
#>  # … with 73 more rows, and 3 more variables: NP_958784 <dbl>, NP_112598 <dbl>,
#>  #   NP_001611 <dbl>
```
…
.pull-left[

```r
clinical[,1:2]
```

```
#>  # A tibble: 105 x 2
#>     Complete.TCGA.ID Gender
#>     <chr>            <chr> 
#>   1 TCGA-A2-A0T2     FEMALE
#>   2 TCGA-A2-A0CM     FEMALE
#>   3 TCGA-BH-A18V     FEMALE
#>   4 TCGA-BH-A18Q     FEMALE
#>   5 TCGA-BH-A0E0     FEMALE
#>   6 TCGA-A7-A0CE     FEMALE
#>   7 TCGA-D8-A142     FEMALE
#>   8 TCGA-A2-A0D0     FEMALE
#>   9 TCGA-AO-A0J6     FEMALE
#>  10 TCGA-A2-A0YM     FEMALE
#>  # … with 95 more rows
```
]
.pull-right[

```r
proteome[,1:2]
```

```
#>  # A tibble: 83 x 2
#>     TCGA_ID      NP_958782
#>     <chr>            <dbl>
#>   1 TCGA-AO-A12D     1.10 
#>   2 TCGA-C8-A131     2.61 
#>   3 TCGA-AO-A12B    -0.660
#>   4 TCGA-BH-A18Q     0.195
#>   5 TCGA-C8-A130    -0.494
#>   6 TCGA-C8-A138     2.77 
#>   7 TCGA-E2-A154     0.863
#>   8 TCGA-C8-A12L     1.41 
#>   9 TCGA-A2-A0EX     1.19 
#>  10 TCGA-AO-A12D     1.10 
#>  # … with 73 more rows
```
…
???

We don't have to sort data for duplicated

---
## Inner join

```r
common_rows <- inner_join(clinical[,1:6], proteome, by=c('Complete.TCGA.ID'='TCGA_ID'))
```

```
#>  # A tibble: 77 x 16
#>     Complete.TCGA.ID Gender Age.at.Initial.… ER.Status PR.Status HER2.Final.Stat…
#>     <chr>            <chr>             <dbl> <chr>     <chr>     <chr>           
#>   1 TCGA-A2-A0CM     FEMALE               40 Negative  Negative  Negative        
#>   2 TCGA-BH-A18Q     FEMALE               56 Negative  Negative  Negative        
#>   3 TCGA-A7-A0CE     FEMALE               57 Negative  Negative  Negative        
#>   4 TCGA-D8-A142     FEMALE               74 Negative  Negative  Negative        
#>   5 TCGA-AO-A0J6     FEMALE               61 Negative  Negative  Negative        
#>   6 TCGA-A2-A0YM     FEMALE               67 Negative  Negative  Negative        
#>   7 TCGA-A2-A0D2     FEMALE               45 Negative  Negative  Negative        
#>   8 TCGA-A2-A0SX     FEMALE               48 Negative  Negative  Negative        
#>   9 TCGA-AO-A0JL     FEMALE               59 Negative  Negative  Negative        
#>  10 TCGA-AO-A12F     FEMALE               36 Negative  Negative  Negative        
#>  # … with 67 more rows, and 10 more variables: NP_958782 <dbl>, NP_958785 <dbl>,
#>  #   NP_958786 <dbl>, NP_000436 <dbl>, NP_958781 <dbl>, NP_958780 <dbl>,
#>  #   NP_958783 <dbl>, NP_958784 <dbl>, NP_112598 <dbl>, NP_001611 <dbl>
```
…
Note that we have all the columns from both datasets, but only 77 rows, which is the common set of IDs from the two datasets
--

> If you don't include the `by` option, R will attempt to match values of any columns with the same names

---
## Left join

```r
left_rows <- left_join(clinical[,1:6], proteome, by=c('Complete.TCGA.ID'='TCGA_ID'))
```

```
#>  # A tibble: 105 x 16
#>    Complete.TCGA.ID Gender Age.at.Initial.Pathologic.Diagnosis ER.Status
#>    <chr>            <chr>                                <dbl> <chr>    
#>  1 TCGA-A2-A0T2     FEMALE                                  66 Negative 
#>  2 TCGA-A2-A0CM     FEMALE                                  40 Negative 
#>  3 TCGA-BH-A18V     FEMALE                                  48 Negative 
#>    PR.Status HER2.Final.Status NP_958782 NP_958785 NP_958786 NP_000436 NP_958781
#>    <chr>     <chr>                 <dbl>     <dbl>     <dbl>     <dbl>     <dbl>
#>  1 Negative  Negative             NA        NA        NA        NA        NA    
#>  2 Negative  Negative              0.683     0.694     0.698     0.687     0.687
#>  3 Negative  Negative             NA        NA        NA        NA        NA    
#>    NP_958780 NP_958783 NP_958784 NP_112598 NP_001611
#>        <dbl>     <dbl>     <dbl>     <dbl>     <dbl>
#>  1    NA        NA        NA         NA       NA    
#>  2     0.698     0.698     0.698     -2.65    -0.984
#>  3    NA        NA        NA         NA       NA    
#>  # … with 102 more rows
```

We get 105 rows, which is all the rows of `clinical`, combined with the rows of `proteome` with common IDs. The rest of the rows get `NA` for the proteome columns.

---
## Right join

```r
right_rows <- right_join(clinical[,1:6], proteome, by=c('Complete.TCGA.ID'='TCGA_ID'))
```

```
#>  # A tibble: 80 x 16
#>    Complete.TCGA.ID Gender Age.at.Initial.Pathologic.Diagnosis ER.Status
#>    <chr>            <chr>                                <dbl> <chr>    
#>  1 TCGA-A2-A0CM     FEMALE                                  40 Negative 
#>  2 TCGA-BH-A18Q     FEMALE                                  56 Negative 
#>  3 TCGA-A7-A0CE     FEMALE                                  57 Negative 
#>    PR.Status HER2.Final.Status NP_958782 NP_958785 NP_958786 NP_000436 NP_958781
#>    <chr>     <chr>                 <dbl>     <dbl>     <dbl>     <dbl>     <dbl>
#>  1 Negative  Negative              0.683     0.694     0.698     0.687     0.687
#>  2 Negative  Negative              0.195     0.215     0.215     0.205     0.215
#>  3 Negative  Negative             -1.12     -1.12     -1.12     -1.13     -1.13 
#>    NP_958780 NP_958783 NP_958784 NP_112598 NP_001611
#>        <dbl>     <dbl>     <dbl>     <dbl>     <dbl>
#>  1     0.698     0.698     0.698     -2.65    -0.984
#>  2     0.215     0.215     0.215     -1.04    -0.517
#>  3    -1.12     -1.12     -1.12       2.24    -2.58 
#>  # … with 77 more rows
```

--

Here we get 80 rows, which is all the rows of `proteome`, along with the rows of `clinical` with common IDs, but with the columns of `clinical` appearing first.

---
## Outer/Full Join

```r
full_rows <- full_join(clinical[,1:6], proteome, by=c('Complete.TCGA.ID'='TCGA_ID'))
```

```
#>  # A tibble: 108 x 16
#>    Complete.TCGA.ID Gender Age.at.Initial.Pathologic.Diagnosis ER.Status
#>    <chr>            <chr>                                <dbl> <chr>    
#>  1 TCGA-A2-A0T2     FEMALE                                  66 Negative 
#>  2 TCGA-A2-A0CM     FEMALE                                  40 Negative 
#>  3 TCGA-BH-A18V     FEMALE                                  48 Negative 
#>    PR.Status HER2.Final.Status NP_958782 NP_958785 NP_958786 NP_000436 NP_958781
#>    <chr>     <chr>                 <dbl>     <dbl>     <dbl>     <dbl>     <dbl>
#>  1 Negative  Negative             NA        NA        NA        NA        NA    
#>  2 Negative  Negative              0.683     0.694     0.698     0.687     0.687
#>  3 Negative  Negative             NA        NA        NA        NA        NA    
#>    NP_958780 NP_958783 NP_958784 NP_112598 NP_001611
#>        <dbl>     <dbl>     <dbl>     <dbl>     <dbl>
#>  1    NA        NA        NA         NA       NA    
#>  2     0.698     0.698     0.698     -2.65    -0.984
#>  3    NA        NA        NA         NA       NA    
#>  # … with 105 more rows
```
…
---

# Create analytic dataset

```r
final_data <- clinical %>% 
  inner_join(proteome, by=c("Complete.TCGA.ID"="TCGA_ID")) %>% 
  filter(Gender =='FEMALE') %>% 
  select(Complete.TCGA.ID, Age.at.Initial.Pathologic.Diagnosis, ER.Status,
         starts_with("NP")) # grabs all the protein data
```

```
#>  # A tibble: 75 x 13
#>    Complete.TCGA.ID Age.at.Initial.Pathologic.Diagnosis ER.Status NP_958782
#>    <chr>                                          <dbl> <chr>         <dbl>
#>  1 TCGA-A2-A0CM                                      40 Negative      0.683
#>  2 TCGA-BH-A18Q                                      56 Negative      0.195
#>  3 TCGA-A7-A0CE                                      57 Negative     -1.12 
#>    NP_958785 NP_958786 NP_000436 NP_958781 NP_958780 NP_958783 NP_958784
#>        <dbl>     <dbl>     <dbl>     <dbl>     <dbl>     <dbl>     <dbl>
#>  1     0.694     0.698     0.687     0.687     0.698     0.698     0.698
#>  2     0.215     0.215     0.205     0.215     0.215     0.215     0.215
#>  3    -1.12     -1.12     -1.13     -1.13     -1.12     -1.12     -1.12 
#>    NP_112598 NP_001611
#>        <dbl>     <dbl>
#>  1     -2.65    -0.984
#>  2     -1.04    -0.517
#>  3      2.24    -2.58 
#>  # … with 72 more rows
```
…
We want to graph each protein separately, while maintaining alignment with ER status and age.

--

The R trick is to make this wide table long, so you can split on the rows 

```r
final_data2 <- final_data %>% tidyr::gather(protein, expression, starts_with('NP')) %>% 
  arrange(Complete.TCGA.ID)
```

```
#>  # A tibble: 750 x 5
#>    Complete.TCGA.ID Age.at.Initial.Pathologic.Diagnosis ER.Status protein  
#>    <chr>                                          <dbl> <chr>     <chr>    
#>  1 TCGA-A2-A0CM                                      40 Negative  NP_958782
#>  2 TCGA-A2-A0CM                                      40 Negative  NP_958785
#>  3 TCGA-A2-A0CM                                      40 Negative  NP_958786
#>    expression
#>         <dbl>
#>  1      0.683
#>  2      0.694
#>  3      0.698
#>  # … with 747 more rows
```
…
