Statistical Modeling
…
--

> OR

---

# Just the residual plot, please

```r
d <- broom::augment(myLinearModel2, newdata=pbc)
d
```

```
# A tibble: 418 x 22
      id  time status   trt   age sex   ascites hepato spiders edema  bili  chol
   <int> <int>  <int> <int> <dbl> <fct>   <int>  <int>   <int> <dbl> <dbl> <int>
 1     1   400      2     1  58.8 f           1      1       1   1    14.5   261
 2     2  4500      0     1  56.4 f           0      1       1   0     1.1   302
 3     3  1012      2     1  70.1 m           0      0       0   0.5   1.4   176
 4     4  1925      2     1  54.7 f           0      1       1   0.5   1.8   244
 5     5  1504      1     2  38.1 f           0      1       1   0     3.4   279
 6     6  2503      2     2  66.3 f           0      1       0   0     0.8   248
 7     7  1832      0     2  55.5 f           0      1       0   0     1     322
 8     8  2466      2     2  53.1 f           0      0       0   0     0.3   280
 9     9  2400      2     1  42.5 f           0      0       1   0     3.2   562
10    10    51      2     2  70.6 f           1      0       1   1    12.6   200
# … with 408 more rows, and 10 more variables: albumin <dbl>, copper <int>,
#   alk.phos <dbl>, ast <dbl>, trig <int>, platelet <int>, protime <dbl>,
#   stage <int>, .fitted <dbl>, .resid <dbl>
```
…
