Practical R: Data Munging
…
`mutate`, as the name suggests, either creates a new column in your data set or transforms an existing column.

.pull-left[

```r
weather4 <- mutate(weather3, 
                   num_day = as.numeric(day))
as_tibble(weather4)
```
]
.pull-right[

```
# A tibble: 341 × 8
   id       year month symbol day    tmax  tmin num_day
   <chr>   <int> <int> <chr>  <chr> <dbl> <dbl>   <dbl>
 1 MX17004  2010     1 d      1        NA    NA       1
 2 MX17004  2010     1 d      2        NA    NA       2
 3 MX17004  2010     1 d      3        NA    NA       3
 4 MX17004  2010     1 d      4        NA    NA       4
 5 MX17004  2010     1 d      5        NA    NA       5
 6 MX17004  2010     1 d      6        NA    NA       6
 7 MX17004  2010     1 d      7        NA    NA       7
 8 MX17004  2010     1 d      8        NA    NA       8
 9 MX17004  2010     1 d      9        NA    NA       9
10 MX17004  2010     1 d      10       NA    NA      10
# … with 331 more rows
```
…
## mutate

`mutate` can either transform a column in place or create a new column in a dataset

.pull-left[

```r
weather4 <- mutate(weather3, day = as.numeric(day))
as_tibble(weather4)
```
]
.pull-right[

```
# A tibble: 341 × 7
   id       year month symbol   day  tmax  tmin
   <chr>   <int> <int> <chr>  <dbl> <dbl> <dbl>
 1 MX17004  2010     1 d          1    NA    NA
 2 MX17004  2010     1 d          2    NA    NA
 3 MX17004  2010     1 d          3    NA    NA
 4 MX17004  2010     1 d          4    NA    NA
 5 MX17004  2010     1 d          5    NA    NA
 6 MX17004  2010     1 d          6    NA    NA
 7 MX17004  2010     1 d          7    NA    NA
 8 MX17004  2010     1 d          8    NA    NA
 9 MX17004  2010     1 d          9    NA    NA
10 MX17004  2010     1 d         10    NA    NA
# … with 331 more rows
```
…
`mutate` can also be used to deal with missing values, by replacing them with a value, for example

.pull-left[

```r
mutate(weather4, tmax = replace_na(tmax, 0))
```

You wouldn't want to do exactly this, of course
]
.pull-right[

```
# A tibble: 341 × 7
   id       year month symbol   day  tmax  tmin
   <chr>   <int> <int> <chr>  <dbl> <dbl> <dbl>
 1 MX17004  2010     1 d          1     0    NA
 2 MX17004  2010     1 d          2     0    NA
 3 MX17004  2010     1 d          3     0    NA
 4 MX17004  2010     1 d          4     0    NA
 5 MX17004  2010     1 d          5     0    NA
 6 MX17004  2010     1 d          6     0    NA
 7 MX17004  2010     1 d          7     0    NA
 8 MX17004  2010     1 d          8     0    NA
 9 MX17004  2010     1 d          9     0    NA
10 MX17004  2010     1 d         10     0    NA
# … with 331 more rows
```
…
Let's use the `mpg` dataset from the `ggplot2` package

.pull-left[

```r
mpg1 <- filter(mpg, 
       (year==1999) & 
         (class %in% c('minivan','suv')))
select(mpg1, manufacturer, cty, hwy, class, year)
```
]
.pull-right[

```
# A tibble: 35 × 5
   manufacturer   cty   hwy class    year
   <chr>        <int> <int> <chr>   <int>
 1 chevrolet       13    17 suv      1999
 2 chevrolet       11    15 suv      1999
 3 chevrolet       14    17 suv      1999
 4 dodge           18    24 minivan  1999
 5 dodge           17    24 minivan  1999
 6 dodge           16    22 minivan  1999
 7 dodge           16    22 minivan  1999
 8 dodge           15    22 minivan  1999
 9 dodge           15    21 minivan  1999
10 dodge           13    17 suv      1999
# … with 25 more rows
```
…
`arrange` reorders **rows** of a data set according to the values of one or more variables

.pull-left[

```r
arrange(weather5, day)
```

Not quite. 
]
.pull-right[

```
# A tibble: 33 × 7
   id       year month symbol   day  tmax  tmin
   <chr>   <int> <int> <chr>  <dbl> <dbl> <dbl>
 1 MX17004  2010    12 d          1  29.9  13.8
 2 MX17004  2010     2 d          2  27.3  14.4
 3 MX17004  2010    11 d          2  31.3  16.3
 4 MX17004  2010     2 d          3  24.1  14.4
 5 MX17004  2010     7 d          3  28.6  17.5
 6 MX17004  2010    11 d          4  27.2  12  
 7 MX17004  2010     3 d          5  32.1  14.2
 8 MX17004  2010     8 d          5  29.6  15.8
 9 MX17004  2010    10 d          5  27    14  
10 MX17004  2010    11 d          5  26.3   7.9
# … with 23 more rows
```
…
---

## arrange

.pull-left[

```r
arrange(weather5, month, day)
```
]
.pull-right[

```
# A tibble: 33 × 7
   id       year month symbol   day  tmax  tmin
   <chr>   <int> <int> <chr>  <dbl> <dbl> <dbl>
 1 MX17004  2010     1 d         30  27.8  14.5
 2 MX17004  2010     2 d          2  27.3  14.4
 3 MX17004  2010     2 d          3  24.1  14.4
 4 MX17004  2010     2 d         11  29.7  13.4
 5 MX17004  2010     2 d         23  29.9  10.7
 6 MX17004  2010     3 d          5  32.1  14.2
 7 MX17004  2010     3 d         10  34.5  16.8
 8 MX17004  2010     3 d         16  31.1  17.6
 9 MX17004  2010     4 d         27  36.3  16.7
10 MX17004  2010     5 d         27  33.2  18.2
# … with 23 more rows
```
…
